{
    "_id": "AUJfvrouapAeC4Mg",
    "data": {
        "MAP": {
            "value": ""
        },
        "baseItem": "shortsword",
        "bonus": {
            "value": 0
        },
        "bonusDamage": {
            "value": 0
        },
        "brokenThreshold": {
            "value": 0
        },
        "bulkCapacity": {
            "value": ""
        },
        "category": "martial",
        "collapsed": {
            "value": false
        },
        "containerId": {
            "value": null
        },
        "damage": {
            "damageType": "piercing",
            "dice": 1,
            "die": "d6",
            "value": ""
        },
        "description": {
            "value": "<p>This <em>+2 greater striking shifting shortsword</em> is formed of rapidly vibrating air and magical energy, though it uses the same statistics as iron. The wooden hilt is adorned with four gems, representing the energies of acid, cold, fire, and electricity, that sparkle in sequence at random intervals.</p>\n<hr />\n<p><strong>Activate</strong> <span class=\"pf2-icon\">f</span> Interact;</p>\n<p><strong>Frequency</strong> once per round;</p>\n<p><strong>Effect</strong> You draw magical energy from one of the gems. Roll [[/r 1d4]]. Until the start of your next turn, the weapon gains the corresponding rune:</p>\n<ol>\n<li><em>@Compendium[pf2e.equipment-srd.Corrosive]{Corrosive}</em>,</li>\n<li><em>@Compendium[pf2e.equipment-srd.Flaming]{Flaming}</em>,</li>\n<li><em>@Compendium[pf2e.equipment-srd.Frost]{Frost}</em>, or</li>\n<li><em>@Compendium[pf2e.equipment-srd.Shock]{Shock}</em>.<hr /></li>\n</ol>\n<p><strong>Activate</strong> <span class=\"pf2-icon\">2</span> command, envision;</p>\n<p><strong>Frequency</strong> once per day;</p>\n<p><strong>Requirements</strong> The blade has an energy rune from the first activation;</p>\n<p><strong>Effect</strong> You call upon the energy stored in the blade to explode outward. The blade of four energies casts a 5th-level spell that depends on the active rune:</p>\n<ol>\n<li><em>@Compendium[pf2e.spells-srd.Acid Arrow]{Acid Arrow}</em> for corrosive,</li>\n<li><em>@Compendium[pf2e.spells-srd.Fireball]{Fireball}</em> for flaming,</li>\n<li><em>@Compendium[pf2e.spells-srd.Cone of Cold]{Cone of Cold}</em> for frost, or</li>\n<li><em>@Compendium[pf2e.spells-srd.Lightning Bolt]{Lightning Bolt}</em> for shock.</li>\n</ol>"
        },
        "equipped": {
            "value": false
        },
        "equippedBulk": {
            "value": ""
        },
        "group": "sword",
        "hands": {
            "value": false
        },
        "hardness": {
            "value": 0
        },
        "hp": {
            "value": 0
        },
        "identification": {
            "misidentified": {},
            "status": "identified",
            "unidentified": {
                "data": {
                    "description": {
                        "value": ""
                    }
                },
                "img": "",
                "name": ""
            }
        },
        "invested": {
            "value": null
        },
        "level": {
            "value": 13
        },
        "maxHp": {
            "value": 0
        },
        "negateBulk": {
            "value": "0"
        },
        "potencyRune": {
            "value": 2
        },
        "preciousMaterial": {
            "value": null
        },
        "preciousMaterialGrade": {
            "value": null
        },
        "price": {
            "value": "3000 gp"
        },
        "property1": {
            "critDamage": "",
            "critDamageType": "",
            "critDice": 0,
            "critDie": "",
            "criticalConditionType": "",
            "criticalConditionValue": null,
            "damageType": "",
            "dice": 0,
            "die": "",
            "strikeConditionType": "",
            "strikeConditionValue": null,
            "value": ""
        },
        "propertyRune1": {
            "value": "shifting"
        },
        "propertyRune2": {
            "value": null
        },
        "propertyRune3": {
            "value": null
        },
        "propertyRune4": {
            "value": null
        },
        "quantity": {
            "value": 1
        },
        "range": null,
        "reload": {
            "value": ""
        },
        "rules": [],
        "size": {
            "value": "med"
        },
        "source": {
            "value": "Pathfinder Secrets of Magic"
        },
        "specific": {
            "material": null,
            "runes": {
                "potency": 2,
                "striking": "greaterStriking"
            },
            "value": true
        },
        "splashDamage": {
            "value": 0
        },
        "stackGroup": {
            "value": ""
        },
        "strikingRune": {
            "value": "greaterStriking"
        },
        "traits": {
            "custom": "",
            "rarity": {
                "value": "common"
            },
            "value": [
                "agile",
                "evocation",
                "finesse",
                "magical",
                "versatile-s"
            ]
        },
        "usage": {
            "value": "held-in-one-hand"
        },
        "weight": {
            "value": "L"
        }
    },
    "effects": [],
    "flags": {},
    "img": "systems/pf2e/icons/default-icons/weapon.svg",
    "name": "Blade of Four Energies",
    "type": "weapon"
}
