{
    "_id": "xTdrhiLqFYUllrpK",
    "data": {
        "activation": {
            "condition": "",
            "cost": 0,
            "type": ""
        },
        "autoDestroy": {
            "_deprecated": true,
            "value": true
        },
        "autoUse": {
            "_deprecated": true,
            "value": true
        },
        "baseItem": null,
        "brokenThreshold": {
            "value": 0
        },
        "bulkCapacity": {
            "value": ""
        },
        "charges": {
            "_deprecated": true,
            "max": 24,
            "value": 24
        },
        "collapsed": {
            "value": false
        },
        "consumableType": {
            "value": "other"
        },
        "consume": {
            "_deprecated": true,
            "value": ""
        },
        "containerId": {
            "value": null
        },
        "description": {
            "value": "<p>In an effort to spread the knowledge of magic as widely as possible, worshippers of Nethys discovered a way to bind cantrips into cards accessible even to non-spellcasters. The deck contains thick parchment cards, each roughly half the size of a playing card. In precise, no-nonsense script, each card simply states the name of its cantrip, color-coded based on its school.</p>\n<p>This pack contains 24 cards-one of each cantrip in the Core Rulebook.</p>\n<hr />\n<p><strong>Activate</strong> <span class=\"pf2-icon\">1</span> or more (envision, Interact);</p>\n<p><strong>Effect</strong> You envision your desired cantrip, causing its card to rise to the top of the deck, and draw the card. The deck casts that cantrip as a 1st-level spell, with a DC of 15 and a spell attack modifier of +5. The card crumbles into dust as the cantrip takes effect. The activation takes the same number of actions as the cantrip you chose takes to cast.</p>\n<hr />\n<ul>\n<li><em>@Compendium[pf2e.spells-srd.Acid Splash]{Acid Splash}</em></li>\n<li><em>@Compendium[pf2e.spells-srd.Chill Touch]{Chill Touch}</em></li>\n<li><em>@Compendium[pf2e.spells-srd.Dancing Lights]{Dancing Lights}</em></li>\n<li><em>@Compendium[pf2e.spells-srd.Daze]{Daze}</em></li>\n<li><em>@Compendium[pf2e.spells-srd.Detect Magic]{Detect Magic}</em></li>\n<li><em>@Compendium[pf2e.spells-srd.Disrupt Undead]{Disrupt Undead}</em></li>\n<li><em>@Compendium[pf2e.spells-srd.Divine Lance]{Divine Lance}</em></li>\n<li><em>@Compendium[pf2e.spells-srd.Electric Arc]{Electric Arc}</em></li>\n<li><em>@Compendium[pf2e.spells-srd.Forbidding Ward]{Forbidding Ward}</em></li>\n<li><em>@Compendium[pf2e.spells-srd.Ghost Sound]{Ghost Sound}</em></li>\n<li><em>@Compendium[pf2e.spells-srd.Guidance]{Guidance}</em></li>\n<li><em>@Compendium[pf2e.spells-srd.Know Direction]{Know Direction}</em></li>\n<li><em>@Compendium[pf2e.spells-srd.Light]{Light}</em></li>\n<li><em>@Compendium[pf2e.spells-srd.Mage Hand]{Mage Hand}</em></li>\n<li><em>@Compendium[pf2e.spells-srd.Message]{Message}</em></li>\n<li><em>@Compendium[pf2e.spells-srd.Prestidigitation]{Prestidigitation}</em></li>\n<li><em>@Compendium[pf2e.spells-srd.Produce Flame]{Produce Flame}</em></li>\n<li><em>@Compendium[pf2e.spells-srd.Ray of Frost]{Ray of Frost}</em></li>\n<li><em>@Compendium[pf2e.spells-srd.Read Aura]{Read Aura}</em></li>\n<li><em>@Compendium[pf2e.spells-srd.Shield]{Shield}</em></li>\n<li><em>@Compendium[pf2e.spells-srd.Sigil]{Sigil}</em></li>\n<li><em>@Compendium[pf2e.spells-srd.Stabilize]{Stabilize}</em></li>\n<li><em>@Compendium[pf2e.spells-srd.Tanglefoot]{Tanglefoot}</em></li>\n<li><em>@Compendium[pf2e.spells-srd.Telekinetic Projectile]{Telekinetic Projectile}</em></li>\n</ul>"
        },
        "duration": {
            "units": "",
            "value": null
        },
        "equipped": {
            "value": false
        },
        "equippedBulk": {
            "value": ""
        },
        "hardness": {
            "value": 0
        },
        "hp": {
            "value": 0
        },
        "identification": {
            "misidentified": {},
            "status": "identified",
            "unidentified": {
                "data": {
                    "description": {
                        "value": ""
                    }
                },
                "img": "",
                "name": ""
            }
        },
        "level": {
            "value": 1
        },
        "maxHp": {
            "value": 0
        },
        "negateBulk": {
            "value": "0"
        },
        "preciousMaterial": {
            "value": null
        },
        "preciousMaterialGrade": {
            "value": null
        },
        "price": {
            "value": "20 gp"
        },
        "quantity": {
            "value": 1
        },
        "range": {
            "long": null,
            "units": "",
            "value": null
        },
        "rules": [],
        "size": {
            "value": "med"
        },
        "source": {
            "value": "Pathfinder Secrets of Magic"
        },
        "spell": {
            "data": null,
            "heightenedLevel": null
        },
        "stackGroup": {
            "value": ""
        },
        "target": {
            "type": "",
            "units": "",
            "value": null
        },
        "traits": {
            "custom": "",
            "rarity": {
                "value": "common"
            },
            "value": [
                "evocation",
                "magical"
            ]
        },
        "usage": {
            "value": "held-in-one-hand"
        },
        "uses": {
            "autoDestroy": true,
            "autoUse": true,
            "max": 0,
            "per": null,
            "value": 0
        },
        "weight": {
            "value": "-"
        }
    },
    "effects": [],
    "flags": {},
    "img": "systems/pf2e/icons/default-icons/consumable.svg",
    "name": "Cantrip Deck (Full Pack)",
    "type": "consumable"
}
