{
    "_id": "R8I13CDRzvpVXOVe",
    "data": {
        "baseItem": null,
        "brokenThreshold": {
            "value": 0
        },
        "bulkCapacity": {
            "value": ""
        },
        "collapsed": {
            "value": false
        },
        "containerId": {
            "value": ""
        },
        "description": {
            "value": "<p>This rune turns weapons into instruments of peacemaking.</p>\n<p><strong>Activate</strong> <span class=\"pf2-icon\">R</span> (Mental) command;</p>\n<p><strong>Trigger</strong> You damage a creature with a pacifying weapon;</p>\n<p><strong>Effect</strong> The damaged creature must succeed at a <span data-pf2-check=\"will\" data-pf2-dc=\"20\" data-pf2-traits=\"enchantment,magical\" data-pf2-label=\"Pacifying DC\" data-pf2-show-dc=\"gm\">Will</span> save or be pacified. A pacified creature takes a -2 penalty to attack rolls on any attacks that aren't nonlethal for 1 minute, and the creature also experiences a clear psychic warning that they should stop dealing lethal damage.</p>"
        },
        "equipped": {
            "value": false
        },
        "equippedBulk": {
            "value": ""
        },
        "hardness": {
            "value": 0
        },
        "hp": {
            "value": 0
        },
        "identification": {
            "misidentified": {},
            "status": "identified",
            "unidentified": {
                "data": {
                    "description": {
                        "value": ""
                    }
                },
                "img": "",
                "name": ""
            }
        },
        "invested": {
            "value": false
        },
        "level": {
            "value": 5
        },
        "maxHp": {
            "value": 0
        },
        "negateBulk": {
            "value": "0"
        },
        "preciousMaterial": {
            "value": ""
        },
        "preciousMaterialGrade": {
            "value": ""
        },
        "price": {
            "value": "150 gp"
        },
        "quantity": {
            "value": 1
        },
        "rules": [],
        "size": {
            "value": "med"
        },
        "source": {
            "value": "Pathfinder #157: Devil at the Dreaming Palace"
        },
        "stackGroup": {
            "value": ""
        },
        "traits": {
            "custom": "",
            "rarity": {
                "value": "uncommon"
            },
            "value": [
                "enchantment",
                "magical"
            ]
        },
        "usage": {
            "value": "etched-onto-a-weapon"
        },
        "weight": {
            "value": "-"
        }
    },
    "effects": [],
    "flags": {},
    "img": "systems/pf2e/icons/equipment/runes/weapon-property-runes/weapon-property-runes.webp",
    "name": "Pacifying",
    "type": "equipment"
}
