{
    "_id": "gbDVj8XRLN9OVVjL",
    "data": {
        "baseItem": null,
        "brokenThreshold": {
            "value": 0
        },
        "bulkCapacity": {
            "value": ""
        },
        "collapsed": {
            "value": false
        },
        "containerId": {
            "value": null
        },
        "description": {
            "value": "<p>This large stone eye is the size of a fist and decorated with elaborate carvings of robes and other garments. You gain +3 item bonus to Perception checks involving sight and you gain a +3 item bonus to a specific Lore skill associated with your outfit, such as Carpentry Lore when wearing a carpenter's outfit or Cooking Lore when wearing a chef's outfit.</p>\n<hr />\n<p><strong>Activate</strong> (1 minute) envision, Interact;</p>\n<p><strong>Effect</strong> You enter a brief trance in which you envision yourself entering a large dressing room. You maneuver through the endless dressing-room mindscape and search for whatever articles of clothing, accessories, and other garments you desire. After the activation, you gain the effects of <em>@Compendium[pf2e.spells-srd.Illusory Disguise]{Illusory Disguise}</em>, except that it only causes you to appear to be wearing the exact outfit you selected within the mindscape. The illusion also disguises the wardrobe stone to match your outfit and not appear out of place, such as by appearing to be a glove or bracelet, though it continues to occupy your hand while you're under the effects of <em>illusory disguise</em>. You can actively Dismiss the Spell, but the effects are also dismissed immediately when you're no longer holding the wardrobe stone.</p>\n<hr />\n<p><strong>Activate</strong> (1 minute) envision, Interact;</p>\n<p><strong>Frequency</strong> once per day;</p>\n<p><strong>Effect</strong> You cast <em>@Compendium[pf2e.spells-srd.Prying Eye]{Prying Eye}</em>.</p>\n<hr />\n<p><strong>Activate</strong> (10 minutes) envision, Interact;</p>\n<p><strong>Effect</strong> The wardrobe stone splits open and permanently transforms into a specific type of magical robe of your choosing. It can transform into any 20th-level or lower magical robe to which you have access, except for items that can't normally be Crafted, such as artifacts. This process is irreversible.</p>"
        },
        "equipped": {
            "value": false
        },
        "equippedBulk": {
            "value": ""
        },
        "hardness": {
            "value": 0
        },
        "hp": {
            "value": 0
        },
        "identification": {
            "misidentified": {},
            "status": "identified",
            "unidentified": {
                "data": {
                    "description": {
                        "value": ""
                    }
                },
                "img": "",
                "name": ""
            }
        },
        "invested": {
            "value": null
        },
        "level": {
            "value": 20
        },
        "maxHp": {
            "value": 0
        },
        "negateBulk": {
            "value": "0"
        },
        "preciousMaterial": {
            "value": null
        },
        "preciousMaterialGrade": {
            "value": null
        },
        "price": {
            "value": "55000 gp"
        },
        "quantity": {
            "value": 1
        },
        "rules": [
            {
                "key": "FlatModifier",
                "label": "Greater Wardrobe Stone (Visual Perception Only)",
                "predicate": {
                    "all": [
                        "visual"
                    ]
                },
                "selector": "perception",
                "type": "item",
                "value": 3
            }
        ],
        "size": {
            "value": "med"
        },
        "source": {
            "value": "Pathfinder Lost Omens: The Grand Bazaar"
        },
        "stackGroup": {
            "value": ""
        },
        "traits": {
            "custom": "",
            "rarity": {
                "value": "uncommon"
            },
            "value": [
                "illusion",
                "invested",
                "magical"
            ]
        },
        "usage": {
            "value": "held-in-one-hand"
        },
        "weight": {
            "value": "L"
        }
    },
    "effects": [],
    "flags": {},
    "img": "systems/pf2e/icons/default-icons/equipment.svg",
    "name": "Wardrobe Stone (Greater)",
    "type": "equipment"
}
