{
    "_id": "9mKcQFcY4Y1g5kJt",
    "data": {
        "attributes": {
            "ac": {
                "value": 10
            },
            "hardness": 3,
            "hasHealth": true,
            "hp": {
                "details": "",
                "max": 12,
                "temp": 0,
                "value": 12
            },
            "stealth": {
                "details": "",
                "value": 8
            }
        },
        "creatureType": "",
        "details": {
            "description": "<p>A trap door covers a pit that is 10 feet square and 10 feet deep. An acidic mass that was once a gelatinous cube lies at the bottom.</p>",
            "disable": "<p><span data-pf2-check=\"thievery\" data-pf2-traits=\"mechanical,trap\" data-pf2-label=\"Remove Trapdoor DC\" data-pf2-dc=\"12\" data-pf2-show-dc=\"gm\">Thievery</span> to remove the trapdoor</p>",
            "isComplex": false,
            "level": {
                "value": 0
            },
            "reset": "<p>Creatures can still fall into the trap, but the trapdoor must be reset manually for the trap to become hidden again. The remains of the burst ooze seep into the ground, and the trap functions as a normal @Compendium[pf2e.hazards.Hidden Pit]{Hidden Pit}.</p>",
            "routine": ""
        },
        "saves": {
            "fortitude": {
                "saveDetail": "",
                "value": 1
            },
            "reflex": {
                "saveDetail": "",
                "value": 1
            },
            "will": {
                "saveDetail": "",
                "value": 0
            }
        },
        "source": {
            "value": "Pathfinder Bounty #7: Cleanup Duty"
        },
        "statusEffects": [],
        "traits": {
            "ci": [],
            "di": {
                "custom": "",
                "selected": {},
                "value": [
                    "critical-hits",
                    "object-immunities",
                    "precision"
                ]
            },
            "dr": [],
            "dv": [],
            "rarity": {
                "value": "common"
            },
            "size": {
                "value": "med"
            },
            "traits": {
                "custom": "",
                "value": [
                    "mechanical",
                    "trap"
                ]
            }
        }
    },
    "effects": [],
    "flags": {},
    "img": "systems/pf2e/icons/default-icons/hazard.svg",
    "items": [
        {
            "_id": "GfNK9TgHmVbxaEyc",
            "data": {
                "actionCategory": {
                    "value": "offensive"
                },
                "actionType": {
                    "value": "reaction"
                },
                "actions": {
                    "value": null
                },
                "description": {
                    "value": "<p data-visibility=\"gm\"><strong>Trigger</strong> A creature walks onto the trapdoor;</p>\n<p><strong>Effect</strong> The triggering creature falls in and takes [[/r {5}[bludgeoning]]]{5 bludgeoning damage} as the acidic mass breaks their fall, then [[/r {1d6}[acid]]]{1d6 acid damage} as the ooze bursts from the impact. That creature can use the @Compendium[pf2e.actionspf2e.Grab an Edge]{Grab an Edge} reaction to avoid falling.</p>"
                },
                "requirements": {
                    "value": ""
                },
                "rules": [],
                "slug": null,
                "source": {
                    "value": ""
                },
                "traits": {
                    "custom": "",
                    "rarity": {
                        "value": "common"
                    },
                    "value": []
                },
                "trigger": {
                    "value": ""
                },
                "weapon": {
                    "value": ""
                }
            },
            "effects": [],
            "flags": {},
            "img": "systems/pf2e/icons/actions/Reaction.webp",
            "name": "Pitfall",
            "sort": 0,
            "type": "action"
        }
    ],
    "name": "Ancient Ooze Pit",
    "token": {
        "disposition": 0,
        "height": 1,
        "img": "systems/pf2e/icons/default-icons/hazard.svg",
        "name": "Ancient Ooze Pit",
        "width": 1
    },
    "type": "hazard"
}
