{
    "_id": "BSLqIYqxcCVBb2Vp",
    "data": {
        "actionCategory": {
            "value": "defensive"
        },
        "actionType": {
            "value": "passive"
        },
        "actions": {
            "value": null
        },
        "description": {
            "value": "<p>This zombie is nigh unkillable. The zombie loses its weakness to slashing and gains resistance against all damage equal to its level (minimum 3), and it gains weakness equal to twice its level (minimum 6) to critical hits.</p>\n<p>Increase the zombie's level by 1 if you give it this ability.</p>"
        },
        "requirements": {
            "value": ""
        },
        "rules": [],
        "source": {
            "value": "Pathfinder Bestiary"
        },
        "traits": {
            "custom": "",
            "rarity": {
                "value": "common"
            },
            "value": []
        },
        "trigger": {
            "value": ""
        },
        "weapon": {
            "value": ""
        }
    },
    "effects": [],
    "flags": {},
    "img": "systems/pf2e/icons/actions/Passive.webp",
    "name": "(Zombie) Unkillable",
    "type": "action"
}
