{
    "_id": "cozi2kUELY40Dcv3",
    "data": {
        "description": {
            "value": "<p>You gain a +2 item bonus to your Fortitude and Reflex DCs against attempts to Grapple, Shove, or Trip you for 1 minute.</p>"
        },
        "duration": {
            "expiry": "turn-end",
            "sustained": false,
            "unit": "minutes",
            "value": 1
        },
        "level": {
            "value": 1
        },
        "rules": [
            {
                "key": "FlatModifier",
                "label": "Inspire Courage (vs fear)",
                "predicate": {
                    "any": [
                        "action:grapple",
                        "action:trip",
                        "action:shove"
                    ]
                },
                "selector": "fortitude",
                "type": "item",
                "value": 2
            },
            {
                "key": "FlatModifier",
                "label": "Inspire Courage (vs fear)",
                "predicate": {
                    "any": [
                        "action:grapple",
                        "action:trip",
                        "action:shove"
                    ]
                },
                "selector": "reflex",
                "type": "item",
                "value": 2
            }
        ],
        "source": {
            "value": ""
        },
        "start": {
            "initiative": null,
            "value": 0
        },
        "target": null,
        "tokenIcon": {
            "show": false
        },
        "traits": {
            "custom": "",
            "rarity": {
                "value": "common"
            },
            "value": []
        }
    },
    "effects": [],
    "flags": {},
    "img": "systems/pf2e/icons/default-icons/effect.svg",
    "name": "Effect: Malleable Mixture (Lesser)",
    "type": "effect"
}
