{
    "_id": "9kOgG7BPEfIyWyqm",
    "data": {
        "description": {
            "value": "<p>The <em>Rowan Rifle</em>'s damage type changes from its current damage type to electricity. On the next sunrise, the <em>Rowan Rifle</em> returns to dealing fire damage.</p>"
        },
        "duration": {
            "expiry": "turn-start",
            "sustained": false,
            "unit": "days",
            "value": 1
        },
        "level": {
            "value": 16
        },
        "rules": [
            {
                "key": "DamageDice",
                "override": {
                    "damageType": "electricity"
                },
                "selector": "rowan-rifle-damage"
            }
        ],
        "source": {
            "value": "Pathfinder Guns & Gears"
        },
        "start": {
            "initiative": null,
            "value": 0
        },
        "target": null,
        "tokenIcon": {
            "show": false
        },
        "traits": {
            "custom": "",
            "rarity": {
                "value": "common"
            },
            "value": []
        }
    },
    "effects": [],
    "flags": {},
    "img": "systems/pf2e/icons/default-icons/effect.svg",
    "name": "Effect: Rowan Rifle (Electricity)",
    "type": "effect"
}
