{
    "_id": "57b8u8s3fV0UCrgJ",
    "data": {
        "description": {
            "value": "<p>Your plant familiar can change shape as a single action, transforming into a Tiny plant of a type roughly similar to the familiar's nature. This otherwise uses the effects of <em>tree shape</em>. You must have a familiar with the plant trait, such as a leshy, to select this ability.</p>"
        },
        "duration": {
            "expiry": "turn-start",
            "sustained": false,
            "unit": "unlimited",
            "value": -1
        },
        "level": {
            "value": 1
        },
        "rules": [],
        "source": {
            "value": ""
        },
        "start": {
            "initiative": null,
            "value": 0
        },
        "target": null,
        "tokenIcon": {
            "show": false
        },
        "traits": {
            "custom": "",
            "rarity": {
                "value": "common"
            },
            "value": []
        }
    },
    "effects": [],
    "flags": {},
    "img": "systems/pf2e/icons/actions/Passive.webp",
    "name": "Plant Form",
    "type": "effect"
}
