{
    "_id": "K1tzUClsozKcdpIe",
    "content": "<h1>Halcamora (Lady of Ripe Bounty) [NG]</h1><p><strong>Halcamora</strong> is an agathion empyreal lord who watches over gardens, parks, and wineries.</p><p></span><strong>Edicts</strong> Cultivate gardens, share wine, keep helpful insects, teach others to farm</p><p><strong>Anathema</strong> Salt or despoil the earth, spread plague or pestilence, carelessly use pesticides</p><p><strong>Follower Alignments</strong> LG, NG, N</span></p><p></span></p><h2>Devotee Benefits</h2><div><div><strong>Divine Ability</strong> Constitution or Wisdom</div><div><strong>Divine Font</strong> heal</div><div><strong>Divine Skill</strong> Nature</div><div><strong>Favored Weapon</strong> club</div><div><strong>Domains</strong> indulgence, luck, nature, swarm</div><div><strong>Cleric Spells</strong> 1st: summon plant or fungus, 2nd: touch of idiocy, 4th: speak with plants</div></div>",
    "flags": {},
    "name": "Halcamora",
    "permission": {
        "default": 0
    }
}
