{
    "_id": "0DSCucjk9WZAw4xT",
    "data": {
        "actionCategory": {
            "value": ""
        },
        "actionType": {
            "value": "passive"
        },
        "actions": {
            "value": null
        },
        "description": {
            "value": "<p>You've been provided a body part designed for combat. You gain either a claw or pincer unarmed attack. The claw deals [[/r {1d4}[slashing]]]{1d4 slashing damage}, is in the brawling group, and has the agile, finesse, and unarmed traits. The pincer deals [[/r {1d6}[piercing]]]{1d6 piercing damage}, is in the brawling group, and has the grapple and unarmed traits. Your body can be reconfigured; you can select this feat at any level, and you can retrain into or out of this feat or change the type of attack you gain.</p>\n<p><strong>Enhancement</strong> Your attacking part is reinforced. Increase the damage die of the unarmed attack you gain from this feat by one step (from 1d4 to 1d6, or from 1d6 to 1d8).</p>"
        },
        "featType": {
            "value": "ancestry"
        },
        "level": {
            "value": 1
        },
        "location": "",
        "prerequisites": {
            "value": []
        },
        "rules": [],
        "source": {
            "value": ""
        },
        "traits": {
            "custom": "",
            "rarity": {
                "value": "common"
            },
            "value": [
                "automaton"
            ]
        }
    },
    "effects": [],
    "flags": {},
    "img": "systems/pf2e/icons/default-icons/feats.webp",
    "name": "Automaton Armament",
    "type": "feat"
}
