{
    "_id": "RkvAuikI0kIZlQTU",
    "data": {
        "actionCategory": {
            "value": ""
        },
        "actionType": {
            "value": "passive"
        },
        "actions": {
            "value": null
        },
        "description": {
            "value": "<p>Dreams are pointless illusions you seek to quash. If you roll a success on a saving throw against an illusion or dream effect or a Perception check to disbelieve an illusion, you get a critical success instead. If you roll a critical failure on any of those checks, you get a failure instead.</p>"
        },
        "featType": {
            "value": "bonus"
        },
        "level": {
            "value": 0
        },
        "location": "",
        "prerequisites": {
            "value": [
                {
                    "value": "Order of the Rack"
                }
            ]
        },
        "rules": [],
        "source": {
            "value": ""
        },
        "traits": {
            "custom": "",
            "rarity": {
                "value": "common"
            },
            "value": []
        }
    },
    "effects": [],
    "flags": {},
    "img": "systems/pf2e/icons/default-icons/feat.svg",
    "name": "Disillusionment",
    "type": "feat"
}
