{
    "_id": "orTWiRwIQEc9FGJQ",
    "data": {
        "actionCategory": {
            "value": ""
        },
        "actionType": {
            "value": "reaction"
        },
        "actions": {
            "value": null
        },
        "description": {
            "value": "<p><strong>Frequency</strong> Once per Crimson Shroud.</p>\n<p><strong>Trigger</strong> You are targeted with a Strike by someone you can detect while your Crimson Shroud is active.</p>\n<p>You fade partially from reality. The attacker must attempt a DC 11 flat check; on a failure, the attack passes harmlessly through the image of your body that remains behind. An instant later you return to reality, and your Crimson Shroud ends.</p>"
        },
        "featType": {
            "value": "archetype"
        },
        "level": {
            "value": 10
        },
        "prerequisites": {
            "value": [
                {
                    "value": "Crimson Shroud"
                }
            ]
        },
        "rules": [],
        "source": {
            "value": ""
        },
        "traits": {
            "custom": "",
            "rarity": {
                "value": "rare"
            },
            "selected": {
                "archetype": "Archetype",
                "teleportation": "Teleportation"
            },
            "value": [
                "archetype",
                "teleportation"
            ]
        }
    },
    "effects": [],
    "flags": {},
    "img": "systems/pf2e/icons/features/feats/feats.webp",
    "name": "Fading",
    "type": "feat"
}
