{
    "_id": "PRlN77xL6Bm2gUIp",
    "data": {
        "actionCategory": {
            "value": "interaction"
        },
        "actionType": {
            "value": "action"
        },
        "actions": {
            "value": 1
        },
        "description": {
            "value": "<p><strong>Requirements</strong> You must have at least one hand free.</p>\n<hr />\n<p>You can use your webbed feet to guide your fall. You glide slowly toward the ground, 5 feet down (10 feet if you don't have both hands free) and up to 25 feet forward through the air. As long as you spend at least 1 action gliding each round and have not yet reached the ground, you remain in the air at the end of your turn.</p>"
        },
        "featType": {
            "value": "ancestry"
        },
        "level": {
            "value": 5
        },
        "location": "",
        "prerequisites": {
            "value": [
                {
                    "value": "windweb grippli heritage"
                }
            ]
        },
        "rules": [],
        "source": {
            "value": "Pathfinder Lost Omens: The Mwangi Expanse"
        },
        "traits": {
            "custom": "",
            "rarity": {
                "value": "common"
            },
            "value": [
                "grippli"
            ]
        }
    },
    "effects": [],
    "flags": {},
    "img": "systems/pf2e/icons/default-icons/feats.webp",
    "name": "Grippli Glide",
    "type": "feat"
}
