{
    "_id": "WC4xLBGmBsdOdHWu",
    "data": {
        "actionCategory": {
            "value": ""
        },
        "actionType": {
            "value": "passive"
        },
        "actions": {
            "value": null
        },
        "description": {
            "value": "<p>You can apply natural cures to heal your allies. You can use Nature instead of Medicine to Treat Wounds. If you're in the wilderness, you might have easier access to fresh ingredients, allowing you to gain a +2 circumstance bonus to your check to Treat Wounds using Nature, subject to the GM's determination.</p>"
        },
        "featType": {
            "value": "skill"
        },
        "level": {
            "value": 1
        },
        "location": "",
        "prerequisites": {
            "value": [
                {
                    "value": "trained in Nature"
                }
            ]
        },
        "rules": [
            {
                "key": "FlatModifier",
                "label": "Natural Medicine (Treat Wounds with fresh ingredients)",
                "predicate": {
                    "all": [
                        "action:treat-wounds",
                        "fresh-ingredients"
                    ]
                },
                "selector": "nature",
                "type": "circumstance",
                "value": 2
            }
        ],
        "source": {
            "value": "Pathfinder Core Rulebook"
        },
        "traits": {
            "custom": "",
            "rarity": {
                "value": "common"
            },
            "value": [
                "general",
                "skill"
            ]
        }
    },
    "effects": [],
    "flags": {},
    "img": "systems/pf2e/icons/features/feats/feats.webp",
    "name": "Natural Medicine",
    "type": "feat"
}
