{
    "_id": "Oo3yRbmrgqi8dmVs",
    "data": {
        "actionCategory": {
            "value": ""
        },
        "actionType": {
            "value": "passive"
        },
        "actions": {
            "value": null
        },
        "description": {
            "value": "<p>You find opportunities to perform stylish feats in the moments between others' heartbeats and eye blinks. You are permanently @Compendium[pf2e.conditionitems.Quickened]{Quickened}.</p>\n<p>You can use the extra action only to @Compendium[pf2e.actionspf2e.Tumble Through]{Tumble Through} or perform the skill action listed in your swashbuckler's style as one that allows you to gain @Compendium[pf2e.classfeatures.Panache]{Panache}, or other actions that would allow you to gain panache at the GM's discretion.</p>"
        },
        "featType": {
            "value": "class"
        },
        "level": {
            "value": 20
        },
        "prerequisites": {
            "value": []
        },
        "rules": [],
        "source": {
            "value": "Pathfinder Advanced Player's Guide"
        },
        "traits": {
            "custom": "",
            "rarity": {
                "value": "common"
            },
            "value": [
                "swashbuckler"
            ]
        }
    },
    "effects": [],
    "flags": {},
    "img": "systems/pf2e/icons/features/feats/feats.webp",
    "name": "Panache Paragon",
    "type": "feat"
}
