{
    "_id": "X9AkydrMdFwg7qIn",
    "data": {
        "actionCategory": {
            "value": "defensive"
        },
        "actionType": {
            "value": "action"
        },
        "actions": {
            "value": 1
        },
        "description": {
            "value": "<p><strong>Requirements</strong> You have one or more hands free.</p>\n<hr />\n<p>You infuse magical power into your body or armaments to parry both physical and magical assaults.</p>\n<p>You raise your guard, gaining a +1 circumstance bonus to AC and to saving throws against spells that target you until the start of your next turn, as long as you continue to meet the requirements.</p>"
        },
        "featType": {
            "value": "class"
        },
        "level": {
            "value": 2
        },
        "location": "",
        "prerequisites": {
            "value": []
        },
        "rules": [],
        "source": {
            "value": ""
        },
        "traits": {
            "custom": "",
            "rarity": {
                "value": "common"
            },
            "value": [
                "magus"
            ]
        }
    },
    "effects": [],
    "flags": {},
    "img": "systems/pf2e/icons/default-icons/feat.svg",
    "name": "Spell Parry",
    "type": "feat"
}
