{
    "_id": "pgIrr8xrlCXbRAeo",
    "data": {
        "actionCategory": {
            "value": ""
        },
        "actionType": {
            "value": "passive"
        },
        "actions": {
            "value": null
        },
        "description": {
            "value": "<p>Your work as an investigator makes you familiar with the criminal element. You might be a criminal yourself, or you might have gained an understanding of how they operate from the outside.</p>\n<p>You become trained in Underworld Lore, and you gain your @Compendium[pf2e.actionspf2e.Pursue a Lead]{Pursue a Lead} circumstance bonus to Thievery checks to investigate the subject of your lead (such as checks to Steal a clue from a suspect or Pick a Lock to open a safe with damning documents).</p>"
        },
        "featType": {
            "value": "class"
        },
        "level": {
            "value": 1
        },
        "location": "",
        "prerequisites": {
            "value": []
        },
        "rules": [
            {
                "key": "FlatModifier",
                "label": "Pursue a Lead (Underworld Investigator)",
                "predicate": {
                    "all": [
                        "pursue-a-lead"
                    ]
                },
                "selector": "thievery",
                "type": "circumstance",
                "value": {
                    "brackets": [
                        {
                            "end": 8,
                            "value": 1
                        },
                        {
                            "start": 9,
                            "value": 2
                        }
                    ]
                }
            }
        ],
        "source": {
            "value": "Pathfinder Advanced Player's Guide"
        },
        "traits": {
            "custom": "",
            "rarity": {
                "value": "common"
            },
            "value": [
                "investigator"
            ]
        }
    },
    "effects": [],
    "flags": {},
    "img": "systems/pf2e/icons/features/feats/feats.webp",
    "name": "Underworld Investigator",
    "type": "feat"
}
