{
    "_id": "q0DGOuLuJNLzgM8d",
    "data": {
        "actionCategory": {
            "value": ""
        },
        "actionType": {
            "value": "passive"
        },
        "actions": {
            "value": null
        },
        "description": {
            "value": "<p>You pool the power of shadow within your eyes, gaining the ability to gather darkness into a turbulent orb of crushing emptiness within your line of sight. You gain the <em>@Compendium[pf2e.spells-srd.Darklight]{Darklight}</em> domain spell. Increase the number of Focus Points in your focus pool by 1.</p>"
        },
        "featType": {
            "value": "archetype"
        },
        "level": {
            "value": 14
        },
        "location": "",
        "prerequisites": {
            "value": [
                {
                    "value": "focus pool"
                },
                {
                    "value": "Shadowcaster Dedication"
                }
            ]
        },
        "rules": [
            {
                "key": "ActiveEffectLike",
                "mode": "add",
                "path": "data.resources.focus.max",
                "value": 1
            }
        ],
        "source": {
            "value": ""
        },
        "traits": {
            "custom": "",
            "rarity": {
                "value": "common"
            },
            "value": [
                "archetype"
            ]
        }
    },
    "effects": [],
    "flags": {},
    "img": "systems/pf2e/icons/default-icons/feat.svg",
    "name": "Unending Emptiness",
    "type": "feat"
}
