{
    "_id": "iX5HEqRImhKzfPR2",
    "data": {
        "actionCategory": {
            "value": ""
        },
        "actionType": {
            "value": "passive"
        },
        "actions": {
            "value": null
        },
        "description": {
            "value": "<p>You're resilient to performative influences that aren't your own. You gain a +1 circumstance bonus to saving throws against effects with the auditory, illusion, linguistic, sonic, or visual traits.</p>"
        },
        "featType": {
            "value": "class"
        },
        "level": {
            "value": 1
        },
        "location": "",
        "prerequisites": {
            "value": []
        },
        "rules": [
            {
                "key": "FlatModifier",
                "label": "Well-Versed (vs. performative effects)",
                "predicate": {
                    "any": [
                        "auditory",
                        "illusion",
                        "linguistic",
                        "sonic",
                        "visual"
                    ]
                },
                "selector": "saving-throw",
                "type": "circumstance",
                "value": 1
            }
        ],
        "source": {
            "value": "Pathfinder Advanced Player's Guide"
        },
        "traits": {
            "custom": "",
            "rarity": {
                "value": "common"
            },
            "value": [
                "bard"
            ]
        }
    },
    "effects": [],
    "flags": {},
    "img": "systems/pf2e/icons/features/feats/feats.webp",
    "name": "Well-Versed",
    "type": "feat"
}
