{
    "_id": "O0uXZRWMNliDbkxU",
    "data": {
        "actionCategory": {
            "value": ""
        },
        "actionType": {
            "value": "passive"
        },
        "actions": {
            "value": null
        },
        "description": {
            "value": "<p>A hag long ago cursed your family, or you are a descendant of a hag or changeling, and their accursed corruption infests your blood and soul.</p>\n<p><strong>Spell List</strong> occult</p>\n<p><strong>Bloodline Skills</strong> Deception, Occultism</p>\n<p><strong>Granted Spells</strong> cantrip <em>@Compendium[pf2e.spells-srd.Daze]{Daze}</em>, 1st: <em>@Compendium[pf2e.spells-srd.Illusory Disguise]{Illusory Disguise}</em>, 2nd: <em>@Compendium[pf2e.spells-srd.Touch of Idiocy]{Touch of Idiocy}</em>, 3rd: <em>@Compendium[pf2e.spells-srd.Blindness]{Blindness}</em>, 4th: <em>@Compendium[pf2e.spells-srd.Outcast's Curse]{Outcast's Curse}</em>, 5th: <em>@Compendium[pf2e.spells-srd.Mariner's Curse]{Mariner's Curse}</em>, 6th: <em>@Compendium[pf2e.spells-srd.Baleful Polymorph]{Baleful Polymorph}</em>, 7th: <em>@Compendium[pf2e.spells-srd.Warp Mind]{Warp Mind}</em>, 8th: <em>@Compendium[pf2e.spells-srd.Spiritual Epidemic]{Spiritual Epidemic}</em>, 9th: <em>@Compendium[pf2e.spells-srd.Nature's Enmity]{Nature's Enmity}</em></p>\n<p><strong>Bloodline Spells</strong> initial: <em>@Compendium[pf2e.spells-srd.Jealous Hex]{Jealous Hex}</em>, advanced: <em>@Compendium[pf2e.spells-srd.Horrific Visage]{Horrific Visage}</em>, greater: <em>@Compendium[pf2e.spells-srd.You're Mine]{You're Mine}</em></p>\n<p><strong>Blood Magic</strong> Spiteful curses punish your foes. You deal 2 mental damage per spell level (basic Will save) to the first creature that deals damage to you before the end of your next turn.</p>\n<p>@Compendium[pf2e.feature-effects.Effect: Hag Blood Magic]{Effect: Hag Blood Magic}</p>"
        },
        "featType": {
            "value": "classfeature"
        },
        "level": {
            "value": 1
        },
        "location": "",
        "prerequisites": {
            "value": []
        },
        "rules": [
            {
                "key": "ActiveEffectLike",
                "mode": "upgrade",
                "path": "data.resources.focus.max",
                "priority": 10,
                "value": 1
            },
            {
                "key": "ActiveEffectLike",
                "mode": "upgrade",
                "path": "data.skills.dec.rank",
                "value": 1
            },
            {
                "key": "ActiveEffectLike",
                "mode": "upgrade",
                "path": "data.skills.occ.rank",
                "value": 1
            },
            {
                "key": "ActiveEffectLike",
                "mode": "override",
                "path": "data.proficiencies.aliases.sorcerer",
                "priority": 39,
                "value": "occult"
            }
        ],
        "source": {
            "value": ""
        },
        "traits": {
            "custom": "",
            "rarity": {
                "value": "common"
            },
            "value": [
                "sorcerer"
            ]
        }
    },
    "effects": [],
    "flags": {},
    "img": "systems/pf2e/icons/features/classes/hag.webp",
    "name": "Bloodline: Hag",
    "type": "feat"
}
