{
    "_id": "uoQOm41BVdSo6pAS",
    "data": {
        "actionCategory": {
            "value": ""
        },
        "actionType": {
            "value": "passive"
        },
        "actions": {
            "value": null
        },
        "description": {
            "value": "<p>Whether due to a velstrac's manipulations or a planar jaunt gone horribly wrong, your bloodline was infused with a vein of shadow.</p>\n<p><strong>Spell List</strong> occult</p>\n<p><strong>Bloodline Skills</strong> Occultism, Stealth</p>\n<p><strong>Granted Spells</strong> cantrip: <em>@Compendium[pf2e.spells-srd.Chill Touch]{Chill Touch}</em>; 1st: <em>@Compendium[pf2e.spells-srd.Grim Tendrils]{Grim Tendrils}</em>; 2nd: <em>@Compendium[pf2e.spells-srd.Darkness]{Darkness}</em>; 3rd: <em>@Compendium[pf2e.spells-srd.Chilling Darkness]{Chilling Darkness}</em>; 4th: <em>@Compendium[pf2e.spells-srd.Phantasmal Killer]{Phantasmal Killer}</em>; 5th: <em>@Compendium[pf2e.spells-srd.Shadow Siphon]{Shadow Siphon}</em>; 6th: <em>@Compendium[pf2e.spells-srd.Collective Transposition]{Collective Transposition}</em>; 7th: <em>@Compendium[pf2e.spells-srd.Duplicate Foe]{Duplicate Foe}</em>; 8th: <em>@Compendium[pf2e.spells-srd.Disappearance]{Disappearance}</em>; 9th: <em>@Compendium[pf2e.spells-srd.Weird]{Weird}</em></p>\n<p><strong>Bloodline Spells</strong> initial: <em>@Compendium[pf2e.spells-srd.Dim the Light]{Dim the Light}</em>; advanced: <em>@Compendium[pf2e.spells-srd.Steal Shadow]{Steal Shadow}</em>; greater: <em>@Compendium[pf2e.spells-srd.Consuming Darkness]{Consuming Darkness}</em></p>\n<p><strong>Blood Magic</strong> Shadows grow deeper around you or one target, either granting a +1 status bonus to Stealth or imposing a -1 status penalty to Perception for 1 round.</p>\n<p>@Compendium[pf2e.feature-effects.Effect: Shadow Blood Magic (Perception)]{Effect: Shadow Blood Magic (Perception)}, @Compendium[pf2e.feature-effects.Effect: Shadow Blood Magic (Stealth)]{Effect: Shadow Blood Magic (Stealth)}</p>"
        },
        "featType": {
            "value": "classfeature"
        },
        "level": {
            "value": 1
        },
        "location": "",
        "prerequisites": {
            "value": []
        },
        "rules": [
            {
                "key": "ActiveEffectLike",
                "mode": "upgrade",
                "path": "data.resources.focus.max",
                "priority": 10,
                "value": 1
            },
            {
                "key": "ActiveEffectLike",
                "mode": "upgrade",
                "path": "data.skills.occ.rank",
                "value": 1
            },
            {
                "key": "ActiveEffectLike",
                "mode": "upgrade",
                "path": "data.skills.ste.rank",
                "value": 1
            },
            {
                "key": "ActiveEffectLike",
                "mode": "override",
                "path": "data.proficiencies.aliases.sorcerer",
                "priority": 39,
                "value": "occult"
            }
        ],
        "source": {
            "value": ""
        },
        "traits": {
            "custom": "",
            "rarity": {
                "value": "common"
            },
            "value": [
                "sorcerer"
            ]
        }
    },
    "effects": [],
    "flags": {},
    "img": "systems/pf2e/icons/features/classes/shadow.webp",
    "name": "Bloodline: Shadow",
    "type": "feat"
}
