{
    "_id": "malYpr0CYL4fDGhr",
    "data": {
        "actionCategory": {
            "value": ""
        },
        "actionType": {
            "value": "passive"
        },
        "actions": {
            "value": null
        },
        "description": {
            "value": "<p>You use your skills at deduction to perform whatever task is necessary to solve the case.</p>\n<p>You can attempt any check that requires you to be trained in a skill, even if you're untrained in it; you can attempt any check that requires you to have expert proficiency in a skill so long as you're trained in it; and you can attempt any check that requires you to have master proficiency in a skill as long as you have expert proficiency in it.</p>"
        },
        "featType": {
            "value": "classfeature"
        },
        "level": {
            "value": 11
        },
        "location": "",
        "prerequisites": {
            "value": []
        },
        "rules": [],
        "source": {
            "value": ""
        },
        "traits": {
            "custom": "",
            "rarity": {
                "value": "common"
            },
            "value": [
                "investigator"
            ]
        }
    },
    "effects": [],
    "flags": {},
    "img": "systems/pf2e/icons/features/classes/deductive-improvisation.webp",
    "name": "Deductive Improvisation",
    "type": "feat"
}
