{
    "_id": "NdeFvIXdHwKYLiUj",
    "data": {
        "actionCategory": {
            "value": ""
        },
        "actionType": {
            "value": "passive"
        },
        "actions": {
            "value": null
        },
        "description": {
            "value": "<p>You feel a kinship with flames and can use them for succor and destruction. You're trained in Acrobatics. You also gain the @Compendium[pf2e.feats-srd.Fire Lung]{Fire Lung} druid feat. You gain the <em>@Compendium[pf2e.spells-srd.Wildfire]{Wildfire}</em> order spell. Allowing unnatural fires to spread or preventing natural fires from occurring in a way that harms the environment are anathema to your order (this doesn't prevent you from using fire destructively or force you to combat a controlled or natural fire).</p>"
        },
        "featType": {
            "value": "classfeature"
        },
        "level": {
            "value": 1
        },
        "location": "",
        "prerequisites": {
            "value": []
        },
        "rules": [
            {
                "key": "ActiveEffectLike",
                "mode": "upgrade",
                "path": "data.skills.acr.rank",
                "value": 1
            }
        ],
        "source": {
            "value": ""
        },
        "traits": {
            "custom": "",
            "rarity": {
                "value": "common"
            },
            "value": [
                "druid"
            ]
        }
    },
    "effects": [],
    "flags": {},
    "img": "systems/pf2e/icons/default-icons/feat.svg",
    "name": "Flame Order",
    "type": "feat"
}
