{
    "_id": "W02bHXylIpoXbO4e",
    "data": {
        "ability": {
            "value": ""
        },
        "area": {
            "areaType": "",
            "value": ""
        },
        "autoHeightenLevel": {
            "value": null
        },
        "category": {
            "value": "spell"
        },
        "components": {
            "focus": false,
            "material": false,
            "somatic": true,
            "verbal": true
        },
        "cost": {
            "value": ""
        },
        "damage": {
            "value": {}
        },
        "description": {
            "value": "<p>You amplify your voice, loud enough for you to be heard easily at a great distance. For the duration, your voice can be heard loudly and clearly by all listeners within 500 feet, even if other ambient noise would otherwise block the sound. Despite the volume, this doesn't make your voice jarring or distracting. This doesn't increase the range or area of other auditory or linguistic effects, and physical barriers such as walls and doors still block or muffle your voice as normal.</p>\n<p>Your loud voice makes it easier to Coerce others, and the acoustics assist in Performing at a large venue. You gain a +1 status bonus to checks to Coerce and auditory Performance checks to Perform at a large venue. You can Dismiss the spell.</p>\n<p>@Compendium[pf2e.spell-effects.Spell Effect: Bullhorn]{Spell Effect: Bullhorn}</p>\n<hr />\n<p><strong>Heightened (5th)</strong> Your voice can be heard clearly up to 1,200 feet away.</p>\n<p><strong>Heightened (7th)</strong> Your voice can be heard clearly up to 1 mile away.</p>"
        },
        "duration": {
            "value": "10 minutes"
        },
        "hasCounteractCheck": {
            "value": false
        },
        "level": {
            "value": 1
        },
        "location": {
            "value": ""
        },
        "materials": {
            "value": ""
        },
        "prepared": {
            "value": ""
        },
        "range": {
            "value": ""
        },
        "rules": [],
        "save": {
            "basic": "",
            "value": ""
        },
        "school": {
            "value": "illusion"
        },
        "source": {
            "value": "Pathfinder Secrets of Magic"
        },
        "spellType": {
            "value": "utility"
        },
        "sustained": {
            "value": false
        },
        "target": {
            "value": ""
        },
        "time": {
            "value": "2"
        },
        "traditions": {
            "custom": "",
            "value": [
                "arcane",
                "divine",
                "occult"
            ]
        },
        "traits": {
            "custom": "",
            "rarity": {
                "value": "common"
            },
            "value": [
                "auditory",
                "cantrip"
            ]
        }
    },
    "effects": [],
    "flags": {},
    "img": "systems/pf2e/icons/spells/bullhorn.webp",
    "name": "Bullhorn",
    "type": "spell"
}
