{
    "_id": "dwKCwwtWetvPmJks",
    "data": {
        "actionCategory": {
            "value": ""
        },
        "actionType": {
            "value": "passive"
        },
        "actions": {
            "value": null
        },
        "description": {
            "value": "<p>You were born in a rain forest with only tangles of trees providing protection from torrential rainstorms and flash floods. You've learned to move adeptly through jungle terrain and resist the various ailments common in humid environs.</p>\n<p>You gain a +2 circumstance bonus to Athletics checks to @Compendium[pf2e.actionspf2e.Climb]{Climb} or @Compendium[pf2e.actionspf2e.Swim]{Swim} and a +1 circumstance bonus to saving throws against diseases.</p>"
        },
        "featType": {
            "value": "heritage"
        },
        "level": {
            "value": 1
        },
        "location": "",
        "prerequisites": {
            "value": []
        },
        "rules": [
            {
                "key": "FlatModifier",
                "label": "Rainfall Orc (Climb or Swim)",
                "predicate": {
                    "any": [
                        "action:climb",
                        "action:swim"
                    ]
                },
                "selector": "athletics",
                "type": "circumstance",
                "value": 2
            },
            {
                "key": "FlatModifier",
                "label": "Rainfall Orc (vs. disease)",
                "predicate": {
                    "all": [
                        "disease"
                    ]
                },
                "selector": "saving-throw",
                "type": "circumstance",
                "value": 1
            }
        ],
        "source": {
            "value": ""
        },
        "traits": {
            "custom": "",
            "rarity": {
                "value": "common"
            },
            "value": [
                "orc"
            ]
        }
    },
    "effects": [],
    "flags": {},
    "img": "systems/pf2e/icons/features/ancestry/rainfall-orc.webp",
    "name": "Rainfall Orc",
    "type": "feat"
}
