{
    "_id": "8d7KQtHz1kYxvRIa",
    "content": "<p>Play during your turn.</p>\n<hr />\n<p>Until the start of your next turn, you gain a +2 status bonus to checks based on the ability scores that are boosted by your ancestry (ignoring free boosts). If your ancestry only grants free boosts, select one ability score to gain the bonus to instead.</p>",
    "flags": {},
    "name": "Ancestral Might",
    "permission": {
        "default": 0
    }
}
