{
    "_id": "WfrKztGAK8Xthk02",
    "content": "<p>Play when you are hit by a physical attack, and you have a shield within reach and a free hand.</p>\n<hr />\n<p>You Interact to draw and wield the shield and then use it to Shield Block against the attack. After the attack and block are resolved, the shield is torn from your grip and lands in an adjacent space.</p>",
    "flags": {},
    "name": "Hasty Block",
    "permission": {
        "default": 0
    }
}
