{
    "_id": "v2kZImaT1rE6Y1aN",
    "content": "<p>Play at the start of a turn when you are dying.</p>\n<hr />\n<p>You regain consciousness and can act normally on your turn, but you can't regain Hit Points or remove the dying condition during this turn. At the end of your turn, you fall @Compendium[pf2e.conditionitems.Unconscious]{Unconscious} and your dying condition increases by 1. Do not attempt a recovery check this turn.</p>",
    "flags": {},
    "name": "Last Ounce of Strength",
    "permission": {
        "default": 0
    }
}
