{
    "_id": "0CPZ672t3F462vTh",
    "content": "<p>Play when an ally is knocked @Compendium[pf2e.conditionitems.Unconscious]{Unconscious} or when you take damage from a critical hit.</p>\n<hr />\n<p>At the start of your next turn, you enter a rage (+2 damage to melee strikes, -1 AC penalty, no concentrate actions unless they have the rage trait, or use the stats for your rage class feature if you have one). At the end of that turn, if you don't have the rage class feature, the rage ends and you are @Compendium[pf2e.conditionitems.Fatigued]{Fatigued}.</p>",
    "flags": {},
    "name": "Rage and Fury",
    "permission": {
        "default": 0
    }
}
