{
    "_id": "0Fvulq5Zv4BQPvYV",
    "data": {
        "attributes": {
            "ac": {
                "value": 10
            },
            "hardness": 3,
            "hasHealth": true,
            "hp": {
                "details": "",
                "max": 12,
                "temp": 0,
                "tempmax": 0,
                "value": 12
            },
            "stealth": {
                "details": "DC 19 Perception check (or 0 after the hazard is triggered)",
                "value": 9
            }
        },
        "creatureType": "",
        "customModifiers": {},
        "details": {
            "description": "A section of splintery and rotten floorboards drop a creature 6 feet onto uneven rocks and piercing shards of wood.",
            "disable": "DC 15 Crafting (trained) to replace or cover the weak sections of flooring, or DC 15 Survival (trained) to crumble the rotten floorboards from a safe distance.",
            "isComplex": false,
            "level": {
                "value": 1
            },
            "reset": "Once this section of the porch has collapsed, creatures can still fall through the hole until the porch is Repaired.",
            "routine": ""
        },
        "saves": {
            "fortitude": {
                "saveDetail": "",
                "value": 1
            },
            "reflex": {
                "saveDetail": "",
                "value": 1
            },
            "will": {
                "saveDetail": "",
                "value": 0
            }
        },
        "source": {
            "value": "Pathfinder Adventure: Troubles in Otari"
        },
        "statusEffects": [],
        "traits": {
            "ci": [],
            "di": {
                "custom": "sneak attack",
                "selected": {},
                "value": [
                    "critical-hits"
                ]
            },
            "dr": [],
            "dv": [],
            "rarity": {
                "value": "common"
            },
            "size": {
                "value": "med"
            },
            "traits": {
                "custom": "",
                "value": [
                    "mechanical"
                ]
            }
        }
    },
    "effects": [],
    "flags": {},
    "img": "systems/pf2e/icons/default-icons/hazard.svg",
    "items": [
        {
            "_id": "71j8rIykcKntxLJQ",
            "data": {
                "actionCategory": {
                    "value": ""
                },
                "actionType": {
                    "value": "reaction"
                },
                "actions": {
                    "value": null
                },
                "description": {
                    "value": "<p>If a creature walks on the area marked on the map, it falls through the weakened floorboards onto uneven rocks and sharp shards of wood, taking [[1d4]] piercing damage and [[1d6]] bludgeoning damage. The creature can use the Grab an Edge reaction to avoid the fall and the damage.</p>"
                },
                "requirements": {
                    "value": ""
                },
                "rules": [],
                "slug": null,
                "source": {
                    "value": ""
                },
                "traits": {
                    "custom": "",
                    "rarity": {
                        "value": "common"
                    },
                    "value": []
                },
                "trigger": {
                    "value": ""
                },
                "weapon": {
                    "value": ""
                }
            },
            "effects": [],
            "flags": {},
            "img": "systems/pf2e/icons/actions/Reaction.webp",
            "name": "Collapse",
            "sort": 100000,
            "type": "action"
        }
    ],
    "name": "Collapsing Porch",
    "token": {
        "disposition": 0,
        "height": 1,
        "img": "systems/pf2e/icons/default-icons/hazard.svg",
        "name": "Collapsing Porch",
        "width": 1
    },
    "type": "hazard"
}
